Process SINAN Malaria variables from DataSUS — process_sinan_malaria • microdatasus
…
municipality_data
optional logical. TRUE by default, creates new variables in the dataset informing the full name and other details about the municipality of residence.

    Value

    a data.frame with the processed data.

    Details

    This function processes SINAN Malaria variables retrieved by fetch_datasus(), informing labels for categoric variables including NA values.

    Examples

process_sinan_malaria(sinan_malaria_sample)
#> # A tibble: 100 × 56
#>    TP_NOT    ID_AGRAVO DT_NOTIFIC SEM_NOT NU_ANO SG_UF_NOT ID_MUNICIP ID_REGIONA
#>    <chr>     <chr>     <chr>      <chr>   <chr>  <chr>     <chr>      <chr>     
#>  1 Individu… B54       2016-01-01 201552  2016   São Paulo 355030     1331      
#>  2 Individu… B54       2016-01-02 201552  2016   Bahia     292740     1380      
#>  3 Individu… B54       2016-01-02 201552  2016   Bahia     291072     1388      
#>  4 Individu… B54       2016-01-02 201552  2016   Espírito… 320130     1510      
#>  5 Individu… B54       2016-01-02 201552  2016   Bahia     292860     1380      
#>  6 Individu… B54       2016-01-03 201601  2016   Paraíba   250750     1377      
#>  7 Individu… B54       2016-01-04 201601  2016   Paraná    410830     1363      
#>  8 Individu… B54       2016-01-04 201601  2016   Goiás     520870     1779      
#>  9 Individu… B54       2016-01-04 201601  2016   Rio Gran… 430510     1608      
#> 10 Individu… B54       2016-01-04 201601  2016   São Paulo 350950     1342      
#> # ℹ 90 more rows
#> # ℹ 48 more variables: ID_UNIDADE <chr>, DT_SIN_PRI <chr>, SEM_PRI <chr>,
#> #   ANO_NASC <chr>, NU_IDADE_N <chr>, CS_SEXO <chr>, CS_GESTANT <chr>,
#> #   CS_RACA <chr>, CS_ESCOL_N <chr>, SG_UF <chr>, ID_MN_RESI <chr>,
#> #   ID_RG_RESI <chr>, ID_PAIS <chr>, DT_INVEST <chr>, ID_OCUPA_N <chr>,
#> #   CLASSI_FIN <chr>, AT_ATIVIDA <chr>, AT_LAMINA <chr>, AT_SINTOMA <chr>,
#> #   TPAUTOCTO <chr>, COUFINF <chr>, COPAISINF <chr>, COMUNINF <chr>, …
…
